EESchema Schematic File Version 4
EELAYER 30 0
EELAYER END
$Descr A4 11693 8268
encoding utf-8
Sheet 1 1
Title "JLink Adapter, Minimal"
Date "2020-06-13"
Rev "A"
Comp "Stephen Stauts (Kyberdin)"
Comment1 ""
Comment2 ""
Comment3 ""
Comment4 ""
$EndDescr
$Comp
L Connector_Generic:Conn_02x05_Odd_Even J2
U 1 1 5ED54512
P 4950 1850
F 0 "J2" H 5000 2267 50  0000 C CNN
F 1 "Conn_02x05_Odd_Even" H 5000 2176 50  0000 C CNN
F 2 "Connector_PinHeader_1.27mm:PinHeader_2x05_P1.27mm_Vertical_SMD" H 4950 1850 50  0001 C CNN
F 3 "~" H 4950 1850 50  0001 C CNN
	1    4950 1850
	1    0    0    -1  
$EndComp
$Comp
L Connector_Generic:Conn_01x02 J5
U 1 1 5ED556BD
P 7300 4200
F 0 "J5" H 7380 4192 50  0000 L CNN
F 1 "Conn_01x02" H 7380 4101 50  0000 L CNN
F 2 "Connector_PinHeader_2.54mm:PinHeader_1x02_P2.54mm_Vertical" H 7300 4200 50  0001 C CNN
F 3 "~" H 7300 4200 50  0001 C CNN
	1    7300 4200
	1    0    0    -1  
$EndComp
$Comp
L Connector:USB_B_Micro J1
U 1 1 5ED561A1
P 4900 2850
F 0 "J1" H 4957 3317 50  0000 C CNN
F 1 "USB_B_Micro" H 4957 3226 50  0000 C CNN
F 2 "Kyberdin-Connectors_USB:USB_Micro-B_Amphenol_10118194_Horizontal_ReducedPads" H 5050 2800 50  0001 C CNN
F 3 "~" H 5050 2800 50  0001 C CNN
	1    4900 2850
	1    0    0    -1  
$EndComp
$Comp
L power:GND #PWR08
U 1 1 5ED6C903
P 7650 2650
F 0 "#PWR08" H 7650 2400 50  0001 C CNN
F 1 "GND" H 7655 2477 50  0000 C CNN
F 2 "" H 7650 2650 50  0001 C CNN
F 3 "" H 7650 2650 50  0001 C CNN
	1    7650 2650
	1    0    0    -1  
$EndComp
$Comp
L power:VCC #PWR05
U 1 1 5ED6DDF9
P 6550 900
F 0 "#PWR05" H 6550 750 50  0001 C CNN
F 1 "VCC" H 6565 1073 50  0000 C CNN
F 2 "" H 6550 900 50  0001 C CNN
F 3 "" H 6550 900 50  0001 C CNN
	1    6550 900 
	1    0    0    -1  
$EndComp
Text Label 6550 1000 0    50   ~ 0
Vref
Wire Wire Line
	7500 1850 7650 1850
Wire Wire Line
	7650 1850 7650 1950
Wire Wire Line
	7500 1950 7650 1950
Connection ~ 7650 1950
Wire Wire Line
	7650 1950 7650 2050
Wire Wire Line
	7500 2050 7650 2050
Connection ~ 7650 2050
Wire Wire Line
	7650 2050 7650 2150
Wire Wire Line
	7500 2150 7650 2150
Connection ~ 7650 2150
Wire Wire Line
	7650 2150 7650 2250
Wire Wire Line
	7500 2250 7650 2250
Connection ~ 7650 2250
Wire Wire Line
	7650 2250 7650 2350
Wire Wire Line
	7500 2350 7650 2350
Connection ~ 7650 2350
Wire Wire Line
	7650 2350 7650 2450
Wire Wire Line
	7500 2450 7650 2450
Connection ~ 7650 2450
Wire Wire Line
	7650 2450 7650 2550
Wire Wire Line
	7500 2550 7650 2550
Wire Wire Line
	7650 2550 7650 2650
Connection ~ 7650 2550
Wire Wire Line
	7500 1750 7650 1750
Wire Wire Line
	7650 1750 7650 1850
Connection ~ 7650 1850
Text Label 6900 1000 0    50   ~ 0
VBUS
$Comp
L power:GND #PWR07
U 1 1 5EDA6FAC
P 7050 5150
F 0 "#PWR07" H 7050 4900 50  0001 C CNN
F 1 "GND" H 7055 4977 50  0000 C CNN
F 2 "" H 7050 5150 50  0001 C CNN
F 3 "" H 7050 5150 50  0001 C CNN
	1    7050 5150
	1    0    0    -1  
$EndComp
NoConn ~ 7500 1650
Text Label 7000 2900 2    50   ~ 0
Vref
Text Label 7000 3200 2    50   ~ 0
SWDIO_TMS
Text Label 7000 3300 2    50   ~ 0
SWCLK_TCK
Text Label 7000 3500 2    50   ~ 0
SWO_TDO
Text Label 7000 3600 2    50   ~ 0
RESET
Text Label 7000 3800 2    50   ~ 0
+5V
$Comp
L Device:R R1
U 1 1 5EDBC5EB
P 4950 3550
F 0 "R1" V 4743 3550 50  0000 C CNN
F 1 "0" V 4834 3550 50  0000 C CNN
F 2 "Resistor_SMD:R_0402_1005Metric" V 4880 3550 50  0001 C CNN
F 3 "~" H 4950 3550 50  0001 C CNN
	1    4950 3550
	0    1    1    0   
$EndComp
$Comp
L power:GND #PWR04
U 1 1 5EDC161E
P 5150 3650
F 0 "#PWR04" H 5150 3400 50  0001 C CNN
F 1 "GND" H 5155 3477 50  0000 C CNN
F 2 "" H 5150 3650 50  0001 C CNN
F 3 "" H 5150 3650 50  0001 C CNN
	1    5150 3650
	1    0    0    -1  
$EndComp
Wire Wire Line
	4800 3250 4800 3550
Wire Wire Line
	4900 3250 5150 3250
Wire Wire Line
	5150 3250 5150 3550
Wire Wire Line
	5100 3550 5150 3550
Connection ~ 5150 3550
Wire Wire Line
	5150 3550 5150 3650
Text Notes 5000 3700 2    50   ~ 0
DNP\n
Text Label 7050 4300 2    50   ~ 0
VBUS
Text Label 7050 4200 2    50   ~ 0
Vref
Wire Wire Line
	7100 4200 7050 4200
Wire Wire Line
	7050 4300 7100 4300
$Comp
L power:GND #PWR01
U 1 1 5EDD8C64
P 4650 2100
F 0 "#PWR01" H 4650 1850 50  0001 C CNN
F 1 "GND" H 4655 1927 50  0000 C CNN
F 2 "" H 4650 2100 50  0001 C CNN
F 3 "" H 4650 2100 50  0001 C CNN
	1    4650 2100
	1    0    0    -1  
$EndComp
Text Label 4700 1650 2    50   ~ 0
Vref
Wire Wire Line
	4700 1650 4750 1650
Text Label 5300 1650 0    50   ~ 0
SWDIO_TMS
Text Label 5300 1750 0    50   ~ 0
SWCLK_TCK
Text Label 5300 1850 0    50   ~ 0
SWO_TDO
Wire Wire Line
	5300 2050 5250 2050
NoConn ~ 4750 1950
NoConn ~ 4750 2050
Wire Wire Line
	4650 1750 4650 1850
Wire Wire Line
	4650 1750 4750 1750
Wire Wire Line
	4650 1850 4750 1850
Connection ~ 4650 1850
Wire Wire Line
	4650 1850 4650 2100
Text Label 5300 2050 0    50   ~ 0
RESET
Text Label 5300 1950 0    50   ~ 0
TDI
Wire Wire Line
	5200 3050 5250 3050
Wire Wire Line
	5300 1950 5250 1950
Wire Wire Line
	5250 1850 5300 1850
Wire Wire Line
	5300 1750 5250 1750
Wire Wire Line
	5250 1650 5300 1650
$Comp
L Device:LED D1
U 1 1 5EDC18E7
P 5000 4450
F 0 "D1" V 5039 4332 50  0000 R CNN
F 1 "LED" V 4948 4332 50  0000 R CNN
F 2 "LED_SMD:LED_0603_1608Metric" H 5000 4450 50  0001 C CNN
F 3 "~" H 5000 4450 50  0001 C CNN
	1    5000 4450
	0    -1   -1   0   
$EndComp
$Comp
L Device:R R2
U 1 1 5EDC51C9
P 5000 4850
F 0 "R2" H 5070 4896 50  0000 L CNN
F 1 "600" H 5070 4805 50  0000 L CNN
F 2 "Resistor_SMD:R_0402_1005Metric" V 4930 4850 50  0001 C CNN
F 3 "~" H 5000 4850 50  0001 C CNN
	1    5000 4850
	1    0    0    -1  
$EndComp
$Comp
L power:GND #PWR03
U 1 1 5EDC5BD4
P 5000 5000
F 0 "#PWR03" H 5000 4750 50  0001 C CNN
F 1 "GND" H 5005 4827 50  0000 C CNN
F 2 "" H 5000 5000 50  0001 C CNN
F 3 "" H 5000 5000 50  0001 C CNN
	1    5000 5000
	1    0    0    -1  
$EndComp
Wire Wire Line
	5000 4700 5000 4600
$Comp
L Connector_Generic:Conn_01x02 J6
U 1 1 5EDE91BA
P 7300 5000
F 0 "J6" H 7380 4992 50  0000 L CNN
F 1 "Conn_01x02" H 7380 4901 50  0000 L CNN
F 2 "Connector_PinHeader_2.54mm:PinHeader_1x02_P2.54mm_Vertical" H 7300 5000 50  0001 C CNN
F 3 "~" H 7300 5000 50  0001 C CNN
	1    7300 5000
	1    0    0    -1  
$EndComp
Wire Wire Line
	7050 5150 7050 5100
Wire Wire Line
	7050 5000 7100 5000
Wire Wire Line
	7100 5100 7050 5100
Connection ~ 7050 5100
Wire Wire Line
	7050 5100 7050 5000
Wire Wire Line
	6950 1850 7000 1850
Wire Wire Line
	7000 2550 6950 2550
Wire Wire Line
	6950 2350 7000 2350
Wire Wire Line
	7000 2250 6950 2250
Wire Wire Line
	6950 2050 7000 2050
Wire Wire Line
	7000 1950 6950 1950
Wire Wire Line
	7000 1650 6950 1650
$Comp
L Connector_Generic:Conn_02x10_Odd_Even J3
U 1 1 5ED4E8AC
P 7200 2050
F 0 "J3" H 7250 2667 50  0000 C CNN
F 1 "Conn_02x10_Odd_Even" H 7250 2576 50  0000 C CNN
F 2 "Connector_PinSocket_2.54mm:PinSocket_2x10_P2.54mm_Horizontal" H 7200 2050 50  0001 C CNN
F 3 "~" H 7200 2050 50  0001 C CNN
	1    7200 2050
	1    0    0    -1  
$EndComp
Text Label 6950 1650 2    50   ~ 0
Vref
Text Label 6950 1950 2    50   ~ 0
SWDIO_TMS
Text Label 6950 2050 2    50   ~ 0
SWCLK_TCK
Text Label 6950 2250 2    50   ~ 0
SWO_TDO
Text Label 6950 2350 2    50   ~ 0
RESET
Text Label 6950 2550 2    50   ~ 0
+5V
Text Label 6950 1850 2    50   ~ 0
TDI
Wire Wire Line
	7000 2900 7050 2900
Wire Wire Line
	7000 3200 7050 3200
Wire Wire Line
	7000 3300 7050 3300
Wire Wire Line
	7000 3600 7050 3600
Wire Wire Line
	7000 3800 7050 3800
Text Label 7000 3100 2    50   ~ 0
TDI
Wire Wire Line
	7000 3100 7050 3100
Text Label 6950 1750 2    50   ~ 0
nTRST
Text Label 7000 3000 2    50   ~ 0
nTRST
Text Label 6950 2150 2    50   ~ 0
RTCK
Text Label 6950 2450 2    50   ~ 0
DBGRQ
Wire Wire Line
	7000 2450 6950 2450
Wire Wire Line
	7000 1750 6950 1750
Wire Wire Line
	7000 2150 6950 2150
Text Label 7000 3400 2    50   ~ 0
RTCK
Text Label 7000 3700 2    50   ~ 0
DBGRQ
Wire Wire Line
	7050 3700 7000 3700
Wire Wire Line
	7050 3400 7000 3400
Wire Wire Line
	7050 3000 7000 3000
Text Label 5250 2850 0    50   ~ 0
SWDIO_TMS
Text Label 5250 2950 0    50   ~ 0
SWCLK_TCK
Text Label 5250 3050 0    50   ~ 0
RESET
Text Notes 5150 4650 0    50   ~ 0
RED
Text Notes 4900 4950 2    50   ~ 0
R=(5Vs -  2.1Vf) / 5mA 
$Comp
L power:PWR_FLAG #FLG0102
U 1 1 5EE616B3
P 6450 1000
F 0 "#FLG0102" H 6450 1075 50  0001 C CNN
F 1 "PWR_FLAG" V 6450 1127 50  0000 L CNN
F 2 "" H 6450 1000 50  0001 C CNN
F 3 "~" H 6450 1000 50  0001 C CNN
	1    6450 1000
	0    -1   -1   0   
$EndComp
$Comp
L Connector_Generic:Conn_01x10 J4
U 1 1 5EDE4EA2
P 7250 3300
F 0 "J4" H 7330 3292 50  0000 L CNN
F 1 "Conn_01x10" H 7330 3201 50  0000 L CNN
F 2 "Connector_PinHeader_2.54mm:PinHeader_1x10_P2.54mm_Vertical" H 7250 3300 50  0001 C CNN
F 3 "~" H 7250 3300 50  0001 C CNN
	1    7250 3300
	1    0    0    -1  
$EndComp
Wire Wire Line
	7050 3500 7000 3500
Wire Wire Line
	6450 1000 6550 1000
Wire Wire Line
	6550 1000 6550 900 
Wire Wire Line
	6900 1000 6900 900 
Wire Wire Line
	5200 2850 5250 2850
Wire Wire Line
	5250 2950 5200 2950
Text Label 4800 3400 2    50   ~ 0
SHIELD_GND
Text Label 5000 4650 2    50   ~ 0
LED_CATHODE
$Comp
L Connector_Generic:Conn_01x02 J7
U 1 1 5EE42EE8
P 7300 4600
F 0 "J7" H 7380 4592 50  0000 L CNN
F 1 "Conn_01x02" H 7380 4501 50  0000 L CNN
F 2 "Connector_PinHeader_2.54mm:PinHeader_1x02_P2.54mm_Vertical" H 7300 4600 50  0001 C CNN
F 3 "~" H 7300 4600 50  0001 C CNN
	1    7300 4600
	1    0    0    -1  
$EndComp
Text Label 7050 4600 2    50   ~ 0
+5V
Text Label 5250 2650 0    50   ~ 0
VBUS
Text Label 7050 4700 2    50   ~ 0
VBUS
Wire Wire Line
	7050 4600 7100 4600
Wire Wire Line
	7100 4700 7050 4700
$Comp
L Device:R R3
U 1 1 5EE529CD
P 5750 4500
F 0 "R3" H 5820 4546 50  0000 L CNN
F 1 "0" H 5820 4455 50  0000 L CNN
F 2 "Resistor_SMD:R_0402_1005Metric" V 5680 4500 50  0001 C CNN
F 3 "~" H 5750 4500 50  0001 C CNN
	1    5750 4500
	1    0    0    -1  
$EndComp
Text Label 5750 4250 0    50   ~ 0
nTRST
Text Label 5750 4800 0    50   ~ 0
RESET
Wire Wire Line
	5750 4250 5750 4350
Wire Wire Line
	5750 4650 5750 4800
Text Notes 5700 4550 2    50   ~ 0
DNP
Wire Wire Line
	5250 2650 5200 2650
$Comp
L power:VBUS #PWR0101
U 1 1 5EE63047
P 6900 900
F 0 "#PWR0101" H 6900 750 50  0001 C CNN
F 1 "VBUS" H 6915 1073 50  0000 C CNN
F 2 "" H 6900 900 50  0001 C CNN
F 3 "" H 6900 900 50  0001 C CNN
	1    6900 900 
	1    0    0    -1  
$EndComp
Wire Wire Line
	5000 4300 5000 4250
Text Label 5000 4250 0    50   ~ 0
+5V
$EndSCHEMATC
